Number of primes in interval: 8392
Number of pseudoprimes: 28
101101
104653
107185
113201
115921
121465
123251
126217
129889
129921
130561
137149
149281
150851
154101
157641
158369
162193
162401
164737
172081
176149
181901
188057
188461
194221
196021
196093
