Strong pseudoprimes base 2 in range [0,1000000]
2047
3277
4033
4681
8321
15841
29341
42799
49141
52633
65281
74665
80581
85489
88357
90751
104653
130561
196093
220729
233017
252601
253241
256999
271951
280601
314821
357761
390937
458989
476971
486737
489997
514447
580337
635401
647089
741751
800605
818201
838861
873181
877099
916327
976873
983401
